{
    "list": [
        {
            "orderId": "MKP-v1451651krn-01",
            "creationDate": "2019-03-20T11:56:13.0000000+00:00",
            "clientName": "LUIZ FELIPE",
            "items": null,
            "totalValue": 5600,
            "paymentNames": "",
            "status": "ready-for-handling",
            "statusDescription": "Carência para Cancelamento",
            "marketPlaceOrderId": "v1451651krn-01",
            "sequence": "500079",
            "salesChannel": "1",
            "affiliateId": "MKP",
            "origin": "Fulfillment",
            "workflowInErrorState": false,
            "workflowInRetry": false,
            "lastMessageUnread": null,
            "ShippingEstimatedDate": "2019-03-20T11:56:47.0000000+00:00",
            "ShippingEstimatedDateMax": null,
            "ShippingEstimatedDateMin": null,
            "orderIsComplete": true,
            "listId": null,
            "listType": null,
            "authorizedDate": "2019-03-20T11:56:47.0000000+00:00",
            "callCenterOperatorName": null,
            "totalItems": 1,
            "currencyCode": "BRL"
        },
        {
            "orderId": "MKP-v1451646krn-01",
            "creationDate": "2019-03-20T11:49:50.0000000+00:00",
            "clientName": "ANTONIO SILVA",
            "items": null,
            "totalValue": 5600,
            "paymentNames": "",
            "status": "ready-for-handling",
            "statusDescription": "Cancelado",
            "marketPlaceOrderId": "v1451646krn-01",
            "sequence": "500078",
            "salesChannel": "1",
            "affiliateId": "MKP",
            "origin": "Fulfillment",
            "workflowInErrorState": false,
            "workflowInRetry": false,
            "lastMessageUnread": null,
            "ShippingEstimatedDate": null,
            "ShippingEstimatedDateMax": null,
            "ShippingEstimatedDateMin": null,
            "orderIsComplete": true,
            "listId": null,
            "listType": null,
            "authorizedDate": null,
            "callCenterOperatorName": null,
            "totalItems": 1,
            "currencyCode": "BRL"
        },
        {
            "orderId": "MKP-v1450407krn-01",
            "creationDate": "2019-03-19T14:50:29.0000000+00:00",
            "clientName": "TESTE CURSO CURSO",
            "items": null,
            "totalValue": 5600,
            "paymentNames": "",
            "status": "ready-for-handling",
            "statusDescription": "Cancelado",
            "marketPlaceOrderId": "v1450407krn-01",
            "sequence": "500077",
            "salesChannel": "1",
            "affiliateId": "MKP",
            "origin": "Fulfillment",
            "workflowInErrorState": false,
            "workflowInRetry": false,
            "lastMessageUnread": null,
            "ShippingEstimatedDate": null,
            "ShippingEstimatedDateMax": null,
            "ShippingEstimatedDateMin": null,
            "orderIsComplete": true,
            "listId": null,
            "listType": null,
            "authorizedDate": null,
            "callCenterOperatorName": null,
            "totalItems": 1,
            "currencyCode": "BRL"
        },
        {
            "orderId": "MKP-v1433335krn-01",
            "creationDate": "2019-03-11T19:05:49.0000000+00:00",
            "clientName": "TEJOVACE GETNADA",
            "items": null,
            "totalValue": 5600,
            "paymentNames": "",
            "status": "ready-for-handling",
            "statusDescription": "Cancelado",
            "marketPlaceOrderId": "v1433335krn-01",
            "sequence": "500076",
            "salesChannel": "1",
            "affiliateId": "MKP",
            "origin": "Fulfillment",
            "workflowInErrorState": false,
            "workflowInRetry": false,
            "lastMessageUnread": null,
            "ShippingEstimatedDate": null,
            "ShippingEstimatedDateMax": null,
            "ShippingEstimatedDateMin": null,
            "orderIsComplete": true,
            "listId": null,
            "listType": null,
            "authorizedDate": null,
            "callCenterOperatorName": null,
            "totalItems": 1,
            "currencyCode": "BRL"
        },
        {
            "orderId": "MKP-v1428703krn-01",
            "creationDate": "2019-03-07T13:50:58.0000000+00:00",
            "clientName": "ROSELI REDONDO",
            "items": null,
            "totalValue": 5600,
            "paymentNames": "",
            "status": "handling",
            "statusDescription": "Preparando Entrega",
            "marketPlaceOrderId": "v1428703krn-01",
            "sequence": "500075",
            "salesChannel": "1",
            "affiliateId": "MKP",
            "origin": "Fulfillment",
            "workflowInErrorState": false,
            "workflowInRetry": false,
            "lastMessageUnread": null,
            "ShippingEstimatedDate": "2019-03-07T13:51:19.0000000+00:00",
            "ShippingEstimatedDateMax": null,
            "ShippingEstimatedDateMin": null,
            "orderIsComplete": true,
            "listId": null,
            "listType": null,
            "authorizedDate": "2019-03-07T13:51:28.0000000+00:00",
            "callCenterOperatorName": null,
            "totalItems": 1,
            "currencyCode": "BRL"
        },
        {
            "orderId": "MKP-v1408756krn-01",
            "creationDate": "2019-02-17T14:36:48.0000000+00:00",
            "clientName": "Erika Lima",
            "items": null,
            "totalValue": 5600,
            "paymentNames": "",
            "status": "handling",
            "statusDescription": "Preparando Entrega",
            "marketPlaceOrderId": "v1408756krn-01",
            "sequence": "500074",
            "salesChannel": "1",
            "affiliateId": "MKP",
            "origin": "Fulfillment",
            "workflowInErrorState": false,
            "workflowInRetry": false,
            "lastMessageUnread": null,
            "ShippingEstimatedDate": "2019-02-18T14:40:31.0000000+00:00",
            "ShippingEstimatedDateMax": null,
            "ShippingEstimatedDateMin": null,
            "orderIsComplete": true,
            "listId": null,
            "listType": null,
            "authorizedDate": "2019-02-17T14:40:34.0000000+00:00",
            "callCenterOperatorName": null,
            "totalItems": 1,
            "currencyCode": "BRL"
        },
        {
            "orderId": "MKP-v1408748krn-01",
            "creationDate": "2019-02-17T14:32:38.0000000+00:00",
            "clientName": "Erika Lima",
            "items": null,
            "totalValue": 5600,
            "paymentNames": "",
            "status": "canceled",
            "statusDescription": "Cancelado",
            "marketPlaceOrderId": "v1408748krn-01",
            "sequence": "500073",
            "salesChannel": "1",
            "affiliateId": "MKP",
            "origin": "Fulfillment",
            "workflowInErrorState": false,
            "workflowInRetry": false,
            "lastMessageUnread": null,
            "ShippingEstimatedDate": null,
            "ShippingEstimatedDateMax": null,
            "ShippingEstimatedDateMin": null,
            "orderIsComplete": true,
            "listId": null,
            "listType": null,
            "authorizedDate": null,
            "callCenterOperatorName": null,
            "totalItems": 1,
            "currencyCode": "BRL"
        },
        {
            "orderId": "MKP-v1363513krn-01",
            "creationDate": "2018-12-22T00:04:11.0000000+00:00",
            "clientName": "Rosenilson silva",
            "items": null,
            "totalValue": 5600,
            "paymentNames": "",
            "status": "canceled",
            "statusDescription": "Cancelado",
            "marketPlaceOrderId": "v1363513krn-01",
            "sequence": "500072",
            "salesChannel": "1",
            "affiliateId": "MKP",
            "origin": "Fulfillment",
            "workflowInErrorState": false,
            "workflowInRetry": false,
            "lastMessageUnread": null,
            "ShippingEstimatedDate": null,
            "ShippingEstimatedDateMax": null,
            "ShippingEstimatedDateMin": null,
            "orderIsComplete": true,
            "listId": null,
            "listType": null,
            "authorizedDate": null,
            "callCenterOperatorName": null,
            "totalItems": 1,
            "currencyCode": "BRL"
        },
        {
            "orderId": "MKP-v1357734krn-01",
            "creationDate": "2018-12-17T13:55:02.0000000+00:00",
            "clientName": "GEOVANE SILVA",
            "items": null,
            "totalValue": 5600,
            "paymentNames": "",
            "status": "ready-for-handling",
            "statusDescription": "Preparando Entrega",
            "marketPlaceOrderId": "v1357734krn-01",
            "sequence": "500071",
            "salesChannel": "1",
            "affiliateId": "MKP",
            "origin": "Fulfillment",
            "workflowInErrorState": false,
            "workflowInRetry": false,
            "lastMessageUnread": null,
            "ShippingEstimatedDate": "2018-12-17T13:55:30.0000000+00:00",
            "ShippingEstimatedDateMax": null,
            "ShippingEstimatedDateMin": null,
            "orderIsComplete": true,
            "listId": null,
            "listType": null,
            "authorizedDate": "2018-12-17T13:55:26.0000000+00:00",
            "callCenterOperatorName": null,
            "totalItems": 1,
            "currencyCode": "BRL"
        },
        {
            "orderId": "MKP-v1355253krn-01",
            "creationDate": "2018-12-14T01:58:21.0000000+00:00",
            "clientName": "ROSENILSON SILVA",
            "items": null,
            "totalValue": 5600,
            "paymentNames": "",
            "status": "canceled",
            "statusDescription": "Cancelado",
            "marketPlaceOrderId": "v1355253krn-01",
            "sequence": "500070",
            "salesChannel": "1",
            "affiliateId": "MKP",
            "origin": "Fulfillment",
            "workflowInErrorState": false,
            "workflowInRetry": false,
            "lastMessageUnread": null,
            "ShippingEstimatedDate": null,
            "ShippingEstimatedDateMax": null,
            "ShippingEstimatedDateMin": null,
            "orderIsComplete": true,
            "listId": null,
            "listType": null,
            "authorizedDate": null,
            "callCenterOperatorName": null,
            "totalItems": 1,
            "currencyCode": "BRL"
        },
        {
            "orderId": "MKP-v1255840krn-03",
            "creationDate": "2018-10-25T00:41:51.0000000+00:00",
            "clientName": "JULIA DIAS",
            "items": null,
            "totalValue": 6100,
            "paymentNames": "",
            "status": "handling",
            "statusDescription": "Preparando Entrega",
            "marketPlaceOrderId": "v1255840krn-03",
            "sequence": "500069",
            "salesChannel": "1",
            "affiliateId": "MKP",
            "origin": "Fulfillment",
            "workflowInErrorState": false,
            "workflowInRetry": false,
            "lastMessageUnread": null,
            "ShippingEstimatedDate": "2018-10-30T00:42:57.0000000+00:00",
            "ShippingEstimatedDateMax": null,
            "ShippingEstimatedDateMin": null,
            "orderIsComplete": true,
            "listId": null,
            "listType": null,
            "authorizedDate": "2018-10-25T00:42:58.0000000+00:00",
            "callCenterOperatorName": null,
            "totalItems": 1,
            "currencyCode": "BRL"
        },
        {
            "orderId": "MKP-v1255707krn-02",
            "creationDate": "2018-10-24T23:55:32.0000000+00:00",
            "clientName": "JULIA DIAS",
            "items": null,
            "totalValue": 6100,
            "paymentNames": "",
            "status": "canceled",
            "statusDescription": "Cancelado",
            "marketPlaceOrderId": "v1255707krn-02",
            "sequence": "500068",
            "salesChannel": "1",
            "affiliateId": "MKP",
            "origin": "Fulfillment",
            "workflowInErrorState": false,
            "workflowInRetry": false,
            "lastMessageUnread": null,
            "ShippingEstimatedDate": null,
            "ShippingEstimatedDateMax": null,
            "ShippingEstimatedDateMin": null,
            "orderIsComplete": true,
            "listId": null,
            "listType": null,
            "authorizedDate": null,
            "callCenterOperatorName": null,
            "totalItems": 1,
            "currencyCode": "BRL"
        },
        {
            "orderId": "MKP-v1246055krn-01",
            "creationDate": "2018-10-19T23:43:17.0000000+00:00",
            "clientName": "JEFERSON KEN QUALIO",
            "items": null,
            "totalValue": 5600,
            "paymentNames": "",
            "status": "handling",
            "statusDescription": "Preparando Entrega",
            "marketPlaceOrderId": "v1246055krn-01",
            "sequence": "500067",
            "salesChannel": "1",
            "affiliateId": "MKP",
            "origin": "Fulfillment",
            "workflowInErrorState": false,
            "workflowInRetry": false,
            "lastMessageUnread": null,
            "ShippingEstimatedDate": "2018-10-24T23:44:04.0000000+00:00",
            "ShippingEstimatedDateMax": null,
            "ShippingEstimatedDateMin": null,
            "orderIsComplete": true,
            "listId": null,
            "listType": null,
            "authorizedDate": "2018-10-19T23:43:22.0000000+00:00",
            "callCenterOperatorName": null,
            "totalItems": 1,
            "currencyCode": "BRL"
        },
        {
            "orderId": "MKP-v1245464krn-01",
            "creationDate": "2018-10-19T15:03:32.0000000+00:00",
            "clientName": "FILLIPI BRANCO DUARTE",
            "items": null,
            "totalValue": 5600,
            "paymentNames": "",
            "status": "handling",
            "statusDescription": "Preparando Entrega",
            "marketPlaceOrderId": "v1245464krn-01",
            "sequence": "500066",
            "salesChannel": "1",
            "affiliateId": "MKP",
            "origin": "Fulfillment",
            "workflowInErrorState": false,
            "workflowInRetry": false,
            "lastMessageUnread": null,
            "ShippingEstimatedDate": "2018-10-24T15:04:20.0000000+00:00",
            "ShippingEstimatedDateMax": null,
            "ShippingEstimatedDateMin": null,
            "orderIsComplete": true,
            "listId": null,
            "listType": null,
            "authorizedDate": "2018-10-19T15:03:54.0000000+00:00",
            "callCenterOperatorName": null,
            "totalItems": 1,
            "currencyCode": "BRL"
        },
        {
            "orderId": "MKP-v1215620krn-01",
            "creationDate": "2018-09-17T00:44:47.0000000+00:00",
            "clientName": "ELAINE FREITAS GONÇALVES",
            "items": null,
            "totalValue": 4760,
            "paymentNames": "",
            "status": "handling",
            "statusDescription": "Preparando Entrega",
            "marketPlaceOrderId": "v1215620krn-01",
            "sequence": "500065",
            "salesChannel": "1",
            "affiliateId": "MKP",
            "origin": "Fulfillment",
            "workflowInErrorState": false,
            "workflowInRetry": false,
            "lastMessageUnread": null,
            "ShippingEstimatedDate": "2018-09-21T09:01:14.0000000+00:00",
            "ShippingEstimatedDateMax": null,
            "ShippingEstimatedDateMin": null,
            "orderIsComplete": true,
            "listId": null,
            "listType": null,
            "authorizedDate": "2018-09-18T09:01:20.0000000+00:00",
            "callCenterOperatorName": null,
            "totalItems": 1,
            "currencyCode": "BRL"
        }
    ],
    "facets": [],
    "paging": {
        "total": 75,
        "pages": 5,
        "currentPage": 1,
        "perPage": 15
    },
    "stats": {
        "stats": {
            "totalValue": {
                "Count": 75,
                "Max": 0,
                "Mean": 0,
                "Min": 0,
                "Missing": 0,
                "StdDev": 0,
                "Sum": 0,
                "SumOfSquares": 0,
                "Facets": {}
            },
            "totalItems": {
                "Count": 75,
                "Max": 0,
                "Mean": 0,
                "Min": 0,
                "Missing": 0,
                "StdDev": 0,
                "Sum": 0,
                "SumOfSquares": 0,
                "Facets": {}
            }
        }
    }
}
